[
  {"ctrl":"so", "id":"S1", "desc":"Socket 1", "pin":13, "inv":0, "init":0 },
  {"ctrl":"so", "id":"S2", "desc":"Socket 2", "pin":12, "inv":0, "init":0 },
  {"ctrl":"so", "id":"S3", "desc":"Socket 3", "pin":4, "inv":0, "init":0 },
  {"ctrl":"so", "id":"S4", "desc":"Socket 4", "pin":5, "inv":0, "init":0 },
  {"ctrl":"so", "id":"SU", "desc":"USB sockets", "pin":14, "inv":1, "init":0 },
  {"ctrl":"led", "id":"L1", "desc":"Button led", "pin":1, "inv":1, "init":0 },
  {"ctrl":"bt", "id":"B1", "desc":"User button","pin":3, "inv":1}
]
